Análisis de datos de la encuesta permantente de hogares: 2022/23 - 8 Ayuda social: Distribución y evolución
…
usu_individual_T423_filtrado <- usu_individual_T423_filtrado |> 
  mutate(Region = nombrar_regiones(Region)) |>
  mutate(Aglomerado = nombrar_aglomerados(Aglomerado)) |>
  mutate(Ciudad_grande = case_when(
    Ciudad_grande == "S" ~ "Si",
    Ciudad_grande == "N" ~ "No"
  ))

usu_individual_T422_filtrado

# A tibble: 19,385 × 6
     Año Region   Ciudad_grande Aglomerado               Sexo Monto_ayuda_social
   <dbl> <chr>    <chr>         <chr>                   <dbl>              <dbl>
 1  2022 Pampeana Si            Gran Rosario                1                  0
 2  2022 Pampeana Si            Gran Rosario                2                  0
 3  2022 Pampeana Si            Gran Rosario                1                  0
 4  2022 Pampeana Si            Gran Rosario                1                  0
 5  2022 Noroeste Si            Gran Tucumán - Tafí Vi…     1                  0
 6  2022 Noroeste Si            Gran Tucumán - Tafí Vi…     2                  0
 7  2022 Noroeste Si            Gran Tucumán - Tafí Vi…     2                  0
 8  2022 Noroeste Si            Gran Tucumán - Tafí Vi…     2              16000
 9  2022 Noroeste Si            Gran Tucumán - Tafí Vi…     1                  0
10  2022 Noroeste Si            Gran Salta                  1                  0
# ℹ 19,375 more rows
…
