Análisis de datos de la encuesta permantente de hogares: 2022/23 - 5 Cómo vivimos - régimen de tenencia.
…
temp_df

# A tibble: 16,656 × 2
   REGION            regimen_tenencia          
   <chr>             <chr>                     
 1 Cuyo              Propietario de la vivienda
 2 Noroeste          Propietario de la vivienda
 3 Gran Buenos Aires Propietario de la vivienda
 4 Pampeana          Propietario de la vivienda
 5 Gran Buenos Aires Propietario de la vivienda
 6 Gran Buenos Aires Propietario de la vivienda
 7 Pampeana          Inquilino / arrendatario  
 8 Pampeana          Propietario de la vivienda
 9 Noreste           Propietario de la vivienda
10 Noreste           Propietario de la vivienda
# ℹ 16,646 more rows
…
