Análisis de datos de la encuesta permantente de hogares: 2022/23 - 7 Educación e Ingreso
…
En el nivel 4 (Secundario completo) quien tiene la mediana de ingresos mas alta es la Patagonia con $400000 y quien tiene la mediana de ingresos mas baja es el Gran Buenos Aires con $170000.

En el nivel 5 (Universitario incompleto) quien tiene la mediana de ingresos mas alta es la Patagonia con $400000 y quien tiene la mediana de ingresos mas baja es el Gran Buenos Aires con $210000.

En el nivel 6 (Universitario completo) quien tiene la mediana de ingresos mas alta es la Patagonia con $468000 y quien tiene la mediana de ingresos mas baja es el gran Buenos Aires con $270000.

Se observa una clara tendencia de la Patagonia en liderar la lista con los ingresos mas altos de todas las regiones. Sin embargo, el Gran Buenos Aires tienen el puesto de ser la region con mas bajos ingresos en todos los niveles educativos, por lo que podemos advertir que existe una gran disparidad entre estas regiones. Ademas se puede reparar en el hecho de que el ingreso aumenta a medida que se avanza en el nivel educativo. Es asi que podemos concluir que si bien el nivel educativo tiene una fuerte influencia en los ingresos de las personas, la gran disparidad interregional de ingresos puede llegar a sugerir que existen otros factores vinculados particualrmente a cada region que hace posible esta gran desigualdad.

Tabla 7.2

`summarise()` has grouped output by 'Nivel_Educativo'. You can override using
the `.groups` argument.

# A tibble: 42 × 3
# Groups:   Nivel_Educativo [7]
   Nivel_Educativo REGION            Mediana
             <dbl> <chr>               <dbl>
 1               0 Cuyo               356430
 2               0 Gran Buenos Aires  189750
 3               0 Noreste            240000
 4               0 Noroeste           305000
 5               0 Pampeana           242000
 6               0 Patagonia          360000
 7               1 Cuyo               305000
 8               1 Gran Buenos Aires  200500
 9               1 Noreste            220250
10               1 Noroeste           287500
# ℹ 32 more rows
…
