Notas de la clase 4
…
Obtenemos datos

Voy a usar los del indec:

my_data <- readRDS("/cloud/project/data/datos_indec.rds")

Seleccionar columnas

temp_df <- my_data |> 
  select(REGION, ITF)

temp_df

# A tibble: 16,656 × 2
   REGION    ITF
    <dbl>  <dbl>
 1     42  97000
 2     40 220000
 3      1 305000
 4     43 673000
 5      1 955000
 6      1 600000
 7     43      0
 8     43 271000
 9     41      0
10     41 535000
# ℹ 16,646 more rows

Seleccionar filas

Con filter

temp_df |> 
  filter(REGION == 1)

# A tibble: 2,605 × 2
   REGION    ITF
    <dbl>  <dbl>
 1      1 305000
 2      1 955000
 3      1 600000
 4      1 220000
 5      1      0
 6      1      0
 7      1 500000
 8      1      0
 9      1 149000
10      1      0
# ℹ 2,595 more rows
…
Entonces tenemos tambíen el !=

(1 != 2)

[1] TRUE

(1 != 1)

[1] FALSE

temp_df |> 
  filter(REGION != 1)

# A tibble: 14,051 × 2
   REGION    ITF
    <dbl>  <dbl>
 1     42  97000
 2     40 220000
 3     43 673000
 4     43      0
 5     43 271000
 6     41      0
 7     41 535000
 8     41 580000
 9     41 240000
10     42 750000
# ℹ 14,041 more rows

También funcionan los < >, también hay <= >=

temp_df |> 
  filter(ITF > 100000)

# A tibble: 11,163 × 2
   REGION    ITF
    <dbl>  <dbl>
 1     40 220000
 2      1 305000
 3     43 673000
 4      1 955000
 5      1 600000
 6     43 271000
 7     41 535000
 8     41 580000
 9     41 240000
10     42 750000
# ℹ 11,153 more rows

temp_df |> 
  filter(ITF > 1000000)

# A tibble: 286 × 2
   REGION     ITF
    <dbl>   <dbl>
 1     44 1100000
 2     40 2100000
 3     42 1114400
 4     43 1050000
 5     44 1200000
 6     43 1560000
 7     43 1834000
 8     43 1205000
 9     44 2200000
10      1 1550000
# ℹ 276 more rows

temp_df |> 
  filter(ITF >= 1000000)

# A tibble: 310 × 2
   REGION     ITF
    <dbl>   <dbl>
 1     44 1100000
 2     40 2100000
 3     42 1114400
 4     43 1000000
 5     43 1050000
 6     44 1200000
 7     43 1560000
 8     43 1834000
 9     43 1205000
10     44 2200000
# ℹ 300 more rows

Crear columnas nuevas

temp_df |> 
  mutate(pais = "Argentina")

# A tibble: 16,656 × 3
   REGION    ITF pais     
    <dbl>  <dbl> <chr>    
 1     42  97000 Argentina
 2     40 220000 Argentina
 3      1 305000 Argentina
 4     43 673000 Argentina
 5      1 955000 Argentina
 6      1 600000 Argentina
 7     43      0 Argentina
 8     43 271000 Argentina
 9     41      0 Argentina
10     41 535000 Argentina
# ℹ 16,646 more rows

temp_df

# A tibble: 16,656 × 2
   REGION    ITF
    <dbl>  <dbl>
 1     42  97000
 2     40 220000
 3      1 305000
 4     43 673000
 5      1 955000
 6      1 600000
 7     43      0
 8     43 271000
 9     41      0
10     41 535000
# ℹ 16,646 more rows

temp_df <- temp_df |> 
  mutate(pais = "Argentina")
temp_df

# A tibble: 16,656 × 3
   REGION    ITF pais     
    <dbl>  <dbl> <chr>    
 1     42  97000 Argentina
 2     40 220000 Argentina
 3      1 305000 Argentina
 4     43 673000 Argentina
 5      1 955000 Argentina
 6      1 600000 Argentina
 7     43      0 Argentina
 8     43 271000 Argentina
 9     41      0 Argentina
10     41 535000 Argentina
# ℹ 16,646 more rows

temp_df <- temp_df |> 
  rename("PAIS" = pais)
temp_df

# A tibble: 16,656 × 3
   REGION    ITF PAIS     
    <dbl>  <dbl> <chr>    
 1     42  97000 Argentina
 2     40 220000 Argentina
 3      1 305000 Argentina
 4     43 673000 Argentina
 5      1 955000 Argentina
 6      1 600000 Argentina
 7     43      0 Argentina
 8     43 271000 Argentina
 9     41      0 Argentina
10     41 535000 Argentina
# ℹ 16,646 more rows
…
# Esto da error
temp_df2 <- temp_df2 |> 
  rename("JORGE"=a)

temp_df2

temp_df2 <- temp_df2 |> 
  rename("JORGE"=a)

temp_df <- temp_df |> 
  rename("Ingreso" = ITF)
temp_df

# A tibble: 16,656 × 3
   REGION Ingreso PAIS     
    <dbl>   <dbl> <chr>    
 1     42   97000 Argentina
 2     40  220000 Argentina
 3      1  305000 Argentina
 4     43  673000 Argentina
 5      1  955000 Argentina
 6      1  600000 Argentina
 7     43       0 Argentina
 8     43  271000 Argentina
 9     41       0 Argentina
10     41  535000 Argentina
# ℹ 16,646 more rows

Crear etiquetas (labels)

Con mutate + case_when

temp_df <- temp_df |> 
  mutate(REGION2 = 
           case_when(
             REGION == 1 ~ "AMBA",
             REGION != 1 ~ "Interior",
            .default = "No Encontrado"))
temp_df

# A tibble: 16,656 × 4
   REGION Ingreso PAIS      REGION2 
    <dbl>   <dbl> <chr>     <chr>   
 1     42   97000 Argentina Interior
 2     40  220000 Argentina Interior
 3      1  305000 Argentina AMBA    
 4     43  673000 Argentina Interior
 5      1  955000 Argentina AMBA    
 6      1  600000 Argentina AMBA    
 7     43       0 Argentina Interior
 8     43  271000 Argentina Interior
 9     41       0 Argentina Interior
10     41  535000 Argentina Interior
# ℹ 16,646 more rows
…
La hipótesis nula es…

Las alternativas son ….

Ejercicio

Con los datos del indec crear una variable nuev (Región) basada en región. Que cada región (1, 40,41,42 etc) tenga la etiqueta correspondiente. Pueden seleccionar solo las pocas columnas de interés y renombrar las variables para que sean a gusto/legibles y entendibles.

Visualizar datos con ggplot2

El paquete se ggplot2 y es parte del tidyverse.

temp_df

# A tibble: 16,656 × 4
   REGION Ingreso PAIS      REGION2 
    <dbl>   <dbl> <chr>     <chr>   
 1     42   97000 Argentina Interior
 2     40  220000 Argentina Interior
 3      1  305000 Argentina AMBA    
 4     43  673000 Argentina Interior
 5      1  955000 Argentina AMBA    
 6      1  600000 Argentina AMBA    
 7     43       0 Argentina Interior
 8     43  271000 Argentina Interior
 9     41       0 Argentina Interior
10     41  535000 Argentina Interior
# ℹ 16,646 more rows
…
