Notas de la clase 13
…
my_data |> 
 group_by(Nivel_Educativo, REGION) |>
  summarize(
    Mediana = median(Ingreso)
  )

`summarise()` has grouped output by 'Nivel_Educativo'. You can override using
the `.groups` argument.

# A tibble: 42 × 3
# Groups:   Nivel_Educativo [7]
   Nivel_Educativo REGION            Mediana
             <dbl> <chr>               <dbl>
 1               0 Cuyo               356430
 2               0 Gran Buenos Aires  189750
 3               0 Noreste            240000
 4               0 Noroeste           305000
 5               0 Pampeana           242000
 6               0 Patagonia          360000
 7               1 Cuyo               305000
 8               1 Gran Buenos Aires  200500
 9               1 Noreste            220250
10               1 Noroeste           287500
# ℹ 32 more rows
…
